[gd_scene load_steps=3 format=2]

[ext_resource path="res://sprites/spritesheet.png" type="Texture" id=1]

[sub_resource type="RectangleShape2D" id=1]
extents = Vector2( 8, 8 )

[node name="Destroyable" type="StaticBody2D"]

[node name="Sprite" type="Sprite" parent="."]
texture = ExtResource( 1 )
vframes = 7
hframes = 7
frame = 18

[node name="CollisionShape2D" type="CollisionShape2D" parent="."]
shape = SubResource( 1 )
