[gd_scene load_steps=6 format=2]

[ext_resource path="res://scripts/MainMenu.gd" type="Script" id=1]
[ext_resource path="res://PixelOperatorSC.ttf" type="DynamicFontData" id=2]
[ext_resource path="res://sprites/mainmenu.png" type="Texture" id=3]

[sub_resource type="DynamicFont" id=1]
font_data = ExtResource( 2 )

[sub_resource type="Theme" id=2]
default_font = SubResource( 1 )

[node name="MainMenu" type="Control"]
anchor_right = 1.0
anchor_bottom = 1.0
theme = SubResource( 2 )
script = ExtResource( 1 )
__meta__ = {
"_edit_use_anchors_": false
}

[node name="TextureRect" type="TextureRect" parent="."]
margin_right = 320.0
margin_bottom = 180.0
texture = ExtResource( 3 )
__meta__ = {
"_edit_use_anchors_": false
}

[node name="Start" type="Label" parent="."]
margin_left = 161.713
margin_top = 108.793
margin_right = 308.713
margin_bottom = 162.793
custom_colors/font_color = Color( 0, 0, 0, 1 )
text = "Press Start
F to toggle fullscreen
Esc to quit"
align = 1
__meta__ = {
"_edit_use_anchors_": false
}

[node name="Instructions" type="Label" parent="."]
margin_left = 4.08675
margin_top = 29.6289
margin_right = 190.087
margin_bottom = 159.629
custom_colors/font_color = Color( 0, 0, 0, 1 )
text = "Arrow keys to move and jump
a,s,d,f,q,w,e,r  to play notes
x to cancel song
Programmer - LibreTen
Artist  - DianaKirby
Sound - HBDTroid

(Original end music by Mozart)"
__meta__ = {
"_edit_use_anchors_": false
}
